…
2. (1 point) How many different countries are represented in the data? Provide the total number and their names. Since each data set includes different numbers of countries, you will need to do this for each one. 

Population data has 195 countries; income data has 193 countries; life data has 187 countries.


```r
population_long %>% 
  count(country)
```

```
## # A tibble: 195 × 2
##    country                 n
##    <chr>               <int>
##  1 Afghanistan           301
##  2 Albania               301
##  3 Algeria               301
##  4 Andorra               301
##  5 Angola                301
##  6 Antigua and Barbuda   301
##  7 Argentina             301
##  8 Armenia               301
##  9 Australia             301
## 10 Austria               301
## # … with 185 more rows
```

```r
income_long %>% 
  count(country)
```

```
## # A tibble: 193 × 2
##    country                 n
##    <chr>               <int>
##  1 Afghanistan           241
##  2 Albania               241
##  3 Algeria               241
##  4 Andorra               241
##  5 Angola                241
##  6 Antigua and Barbuda   241
##  7 Argentina             241
##  8 Armenia               241
##  9 Australia             241
## 10 Austria               241
## # … with 183 more rows
```

```r
life_long %>% 
  count(country)
```

```
## # A tibble: 187 × 2
##    country                 n
##    <chr>               <int>
##  1 Afghanistan           301
##  2 Albania               301
##  3 Algeria               301
##  4 Andorra               301
##  5 Angola                301
##  6 Antigua and Barbuda   301
##  7 Argentina             301
##  8 Armenia               301
##  9 Australia             301
## 10 Austria               301
## # … with 177 more rows
```
…
3. (2 points) Let's limit the data to 100 years (1920-2020). For these years, which country has the highest average life expectancy? How about the lowest average life expectancy?  

Andorra has the highest average life expectancy, which is 79.77 years old; Central African Republic has the lowest average life expectancy, which is 41.77 years old.

```r
life_long %>% 
  filter(year>= "1920" & year <= "2020") %>% 
  group_by(country) %>% 
  summarize(avg_life_exp = mean(life_value, na.rm=T)) %>% 
  arrange(desc(avg_life_exp))
```

```
## # A tibble: 187 × 2
##    country     avg_life_exp
##    <chr>              <dbl>
##  1 Andorra             79.8
##  2 Sweden              73.5
##  3 Norway              73.2
##  4 Netherlands         73.0
##  5 Dominica            73.0
##  6 Iceland             72.9
##  7 Australia           72.7
##  8 Switzerland         72.7
##  9 Denmark             71.9
## 10 Canada              71.8
## # … with 177 more rows
```
…
```r
income_long_1920_2020 <- income_long %>% 
  filter(year>="1920" & year<="2020")
```


```r
gapminder_join <- inner_join(life_long_1920_2020, population_long_1920_2020, by= c("country", "year"))
gapminder_join <- inner_join(gapminder_join, income_long_1920_2020, by= c("country", "year"))
gapminder_join #yaaaaaaaaay that's cool and super useful
```

```
## # A tibble: 18,887 × 5
##    country     year  life_value population_value income_value
##    <chr>       <chr>      <dbl>            <dbl>        <dbl>
##  1 Afghanistan 1920        30.6         10600000         1490
##  2 Afghanistan 1921        30.7         10500000         1520
##  3 Afghanistan 1922        30.8         10300000         1550
##  4 Afghanistan 1923        30.8          9710000         1570
##  5 Afghanistan 1924        30.9          9200000         1600
##  6 Afghanistan 1925        31            8720000         1630
##  7 Afghanistan 1926        31            8260000         1650
##  8 Afghanistan 1927        31.1          7830000         1680
##  9 Afghanistan 1928        31.1          7420000         1710
## 10 Afghanistan 1929        31.2          7100000         1740
## # … with 18,877 more rows
```
…
